@startuml

title __ELECTION-MANAGEMENT's Class Diagram__\n



  package  {
      package firestore {
        class FirestoreDefault {
            - db : Firestore
            ~ FirestoreDefault()
            + getAllUsers()
            + updateServerIpOnUser()
            + startListeningForUser()
        }
      }
    }


    package  {
      package firestore {
        class FirestoreFactory {
            {static} + FIRESTORE_DEFAULT : int
            {static} + FIRESTORE_PROJECT : int
            {static} + getFirestore()
        }
      }
    }


    package  {
      package firestore {
        interface FirestoreImpl {
            {abstract} + getAllUsers()
            {abstract} + updateServerIpOnUser()
            {abstract} + startListeningForUser()
        }
      }
    }


    package  {
      package firestore {
        class FirestoreProject {
            - db : Firestore
            ~ FirestoreProject()
            + getAllUsers()
            + updateServerIpOnUser()
            + startListeningForUser()
        }
      }
    }
  

  package  {
      class ControllingServer {
          {static} - serverId : int
          - ControllingServer()
          - startListeningForNewUser()
          {static} + main()
          + update()
      }
    }


  package  {
      package controller {
        class FirestoreHelper {
            - db : Firestore
            + FirestoreHelper()
            + getAllUsers()
            + updateServerIpOnUser()
            + startListeningForUser()
        }
      }
    }
  

  package  {
    package common {
      class Utils {
          {static} + FIREBASE_PROJECT_ID : String
          {static} + DISTRIBUTED_SERVER_IPS : String[]
          {static} + DISTRIBUTED_SERVER_DEFAULT_PORT : int
          {static} + getCompleteServerAddress()
      }
    }
  }
  


  FirestoreImpl -up-|> FirestoreHelper
  FirestoreDefault -up-|> FirestoreImpl
  FirestoreProject -up-|> FirestoreImpl
  FirestoreFactory -up-|> FirestoreProject
  FirestoreFactory -up-|> FirestoreDefault
  ControllingServer -up-|> FirestoreFactory


right footer


PlantUML diagram generated by SketchIt! (https://bitbucket.org/pmesmeur/sketch.it)
For more information about this tool, please contact philippe.mesmeur@gmail.com
endfooter

@enduml
